{
  "$schema-template": "4.0.0",
  "modulesContent": {
    "$edgeAgent": {
      "properties.desired": {
        "schemaVersion": "1.0",
        "runtime": {
          "type": "docker",
          "settings": {
            "minDockerVersion": "v1.25",
            "loggingOptions": "",
            "registryCredentials": {
              "panuponregistry": {
                "username": "${ACR_USER}",
                "password": "${ACR_PASSWORD}",
                "address": "${ACR_ADDRESS}"
              },
              "docker": {
                "username": "$CONTAINER_REGISTRY_USERNAME_docker",
                "password": "$CONTAINER_REGISTRY_PASSWORD_docker",
                "address": "docker.io"
              }
            }
          }
        },
        "systemModules": {
          "edgeAgent": {
            "type": "docker",
            "settings": {
              "image": "mcr.microsoft.com/azureiotedge-agent:1.0",
              "createOptions": {}
            }
          },
          "edgeHub": {
            "env": {
              "OptimizeForPerformance": {
                "value": "false"
              }
            },
            "type": "docker",
            "status": "running",
            "restartPolicy": "always",
            "settings": {
              "image": "mcr.microsoft.com/azureiotedge-hub:1.0",
              "createOptions": {
                "HostConfig": {
                  "PortBindings": {
                    "5671/tcp": [
                      {
                        "HostPort": "5671"
                      }
                    ],
                    "8883/tcp": [
                      {
                        "HostPort": "8883"
                      }
                    ],
                    "443/tcp": [
                      {
                        "HostPort": "443"
                      }
                    ]
                  }
                }
              }
            }
          }
        },
        "modules": {
          "http": {
            "version": "1.0",
            "type": "docker",
            "status": "running",
            "restartPolicy": "always",
            "settings": {
              "image": "${MODULES.http}",
              "createOptions": {}
            }
          },
          "httpServer": {
            "version": "1.0",
            "type": "docker",
            "status": "running",
            "restartPolicy": "always",
            "settings": {
              "image": "${MODULES.httpServer}",
              "createOptions": {
                "HostConfig": {
                  "PortBindings": {
                    "3000/tcp": [
                      {
                        "HostPort": "3000"
                      }
                    ]
                  }
                }
              }
            }
          },
          "modbus": {
            "version": "1.0",
            "type": "docker",
            "status": "running",
            "restartPolicy": "always",
            "settings": {
              "image": "${MODULES.modbus}",
              "createOptions": {
                "HostConfig": {
                  "Privileged": true,
                  "GroupAdd": ["dialout"],
                  "Devices": [
                    {
                      "PathOnHost": "/dev/ttyUSB1",
                      "PathInContainer": "/dev/ttyUSB1",
                      "CgroupPermissions": "rwm"
                    }
                  ]
                }
              }
            }
          },
          "directMethod": {
            "version": "1.0",
            "type": "docker",
            "status": "running",
            "restartPolicy": "always",
            "settings": {
              "image": "${MODULES.directMethod}",
              "createOptions": {
                "HostConfig": {
                  "Devices": [
                    {
                      "PathOnHost": "/dev/ttyUSB0",
                      "PathInContainer": "/dev/ttyUSB0",
                      "CgroupPermissions": "rwm"
                    }
                  ]
                }
              }
            }
          },
          "nodeMqtt": {
            "version": "1.0",
            "type": "docker",
            "status": "running",
            "restartPolicy": "always",
            "settings": {
              "image": "${MODULES.nodeMqtt}",
              "createOptions": {}
            }
          },
          "modbusTCP": {
            "version": "1.0",
            "type": "docker",
            "status": "running",
            "restartPolicy": "always",
            "settings": {
              "image": "${MODULES.modbusTCP}",
              "createOptions": {}
            }
          },
          "nodered": {
            "version": "1.0",
            "type": "docker",
            "status": "running",
            "restartPolicy": "always",
            "settings": {
              "image": "nodered/node-red",
              "createOptions": {
                "HostConfig": {
                  "Privileged": true,
                  "Binds": ["/node-red:/data"],
                  "PortBindings": {
                    "1880/tcp": [
                      {
                        "HostPort": "1880"
                      }
                    ]
                  }
                }
              }
            }
          }
        }
      }
    },
    "$edgeHub": {
      "properties.desired": {
        "schemaVersion": "1.0",
        "routes": {
          "noderedToIoTHub": "FROM /messages/modules/nodered/outputs/* INTO $upstream"
        },
        "storeAndForwardConfiguration": {
          "timeToLiveSecs": 7200
        }
      }
    }
  }
}
